nodes,milies,values
3,1641070797000,84
5,1641070773000,126
4,1641070703000,63
1,1641070639000,12
1,1641070619000,123
2,1641070602000,149
4,1641070502000,60
4,1641070487000,140
1,1641070480000,164
3,1641070384000,80
2,1641070350000,196
4,1641070318000,62
3,1641070274000,171
5,1641070272000,133
2,1641070188000,29
5,1641070156000,5
1,1641070123000,14
6,1641070115000,163
5,1641069895000,81
6,1641069870000,52
5,1641069835000,131
3,1641069819000,97
4,1641069798000,28
5,1641069784000,193
3,1641069778000,44
4,1641069613000,125
3,1641069612000,44
2,1641069560000,178
1,1641069449000,193
3,1641069365000,84
5,1641069119000,64
1,1641069105000,57
2,1641068985000,197
3,1641068963000,0
4,1641068930000,177
4,1641068916000,69
5,1641068887000,8
2,1641068849000,72
1,1641068770000,113
6,1641068759000,59
6,1641068746000,168
1,1641068737000,27
2,1641068683000,95
3,1641068671000,82
2,1641068669000,92
1,1641068654000,41
5,1641068632000,89
3,1641068558000,47
4,1641068521000,91
4,1641068500000,87
1,1641068474000,181
3,1641068403000,171
6,1641068397000,72
2,1641068380000,164
6,1641068363000,46
2,1641068354000,193
4,1641068340000,105
6,1641068290000,137
4,1641068256000,116
3,1641068201000,92
3,1641068118000,72
1,1641068022000,31
1,1641068021000,138
2,1641067988000,170
6,1641067971000,66
1,1641067944000,73
6,1641067860000,86
3,1641067841000,176
2,1641067836000,137
1,1641067814000,171
5,1641067684000,63
2,1641067678000,176
2,1641067560000,124
1,1641067533000,64
5,1641067509000,161
2,1641067458000,49
6,1641067377000,45
1,1641067223000,150
6,1641067115000,149
1,1641067070000,78
4,1641067066000,108
1,1641067020000,94
6,1641067013000,107
3,1641066999000,106
3,1641066985000,186
2,1641066955000,94
6,1641066945000,42
3,1641066872000,105
5,1641066871000,1
1,1641066825000,128
3,1641066743000,67
1,1641066713000,94
3,1641066712000,85
2,1641066698000,38
1,1641066678000,6
5,1641066677000,161
1,1641066652000,87
3,1641066638000,26
3,1641066520000,160
2,1641066428000,25
4,1641066428000,59
5,1641066406000,20
4,1641066385000,188
2,1641066356000,111
4,1641066329000,107
1,1641066107000,146
2,1641066068000,45
5,1641066055000,10
4,1641066039000,39
2,1641066010000,183
2,1641065977000,170
6,1641065973000,68
1,1641065936000,41
3,1641065892000,106
6,1641065680000,191
4,1641065651000,105
3,1641065550000,178
6,1641065493000,75
3,1641065444000,60
4,1641065420000,120
2,1641065393000,94
2,1641065388000,83
3,1641065386000,35
3,1641065366000,7
4,1641065308000,20
3,1641065138000,103
3,1641065012000,119
6,1641064991000,40
3,1641064990000,93
6,1641064949000,60
4,1641064946000,31
4,1641064895000,112
3,1641064821000,73
1,1641064786000,183
4,1641064725000,54
6,1641064673000,88
1,1641064616000,31
5,1641064495000,128
5,1641064488000,41
4,1641064406000,139
1,1641064390000,46
1,1641064355000,46
3,1641064329000,128
4,1641064303000,199
3,1641064301000,195
3,1641064279000,40
5,1641064266000,200
5,1641064257000,31
2,1641064171000,189
4,1641064072000,184
5,1641064043000,32
4,1641063905000,102
6,1641063880000,2
5,1641063853000,44
2,1641063850000,66
6,1641063759000,79
1,1641063672000,38
4,1641063670000,99
6,1641063623000,39
5,1641063577000,96
4,1641063546000,7
2,1641063531000,26
4,1641063482000,98
5,1641063443000,10
2,1641063427000,174
1,1641063413000,2
3,1641063376000,26
5,1641063363000,78
4,1641063237000,50
3,1641063237000,73
3,1641063196000,12
6,1641063118000,136
4,1641062905000,78
6,1641062893000,50
4,1641062882000,42
3,1641062775000,81
3,1641062760000,98
4,1641062732000,44
3,1641062712000,76
4,1641062557000,98
3,1641062557000,66
5,1641062492000,83
5,1641062434000,145
2,1641062430000,25
6,1641062387000,45
2,1641062387000,187
2,1641062384000,143
3,1641062381000,3
6,1641062325000,120
2,1641062322000,26
5,1641062243000,196
1,1641062241000,120
6,1641062232000,91
5,1641062225000,180
6,1641062217000,139
3,1641062209000,154
4,1641062202000,160
6,1641062146000,146
4,1641062096000,22
5,1641062010000,16
1,1641061927000,170
6,1641061897000,73
1,1641061885000,23
2,1641061879000,26
1,1641061754000,78
1,1641061738000,92
2,1641061671000,17
3,1641061668000,173
1,1641061647000,90
2,1641061618000,93
6,1641061580000,185
3,1641061498000,173
3,1641061472000,24
2,1641061449000,38
6,1641061420000,123
5,1641061405000,141
1,1641061359000,118
4,1641061301000,19
5,1641061253000,48
5,1641061112000,99
3,1641061092000,54
1,1641061076000,110
1,1641060905000,142
2,1641060864000,169
3,1641060841000,43
5,1641060825000,90
6,1641060822000,13
3,1641060672000,64
4,1641060575000,157
6,1641060553000,64
6,1641060552000,102
2,1641060517000,112
6,1641060501000,53
6,1641060481000,39
1,1641060468000,90
5,1641060388000,42
3,1641060302000,132
2,1641060289000,158
1,1641060286000,23
6,1641060243000,176
2,1641060205000,172
5,1641060200000,159
3,1641060030000,151
1,1641060023000,13
5,1641059946000,168
3,1641059924000,109
6,1641059915000,23
4,1641059914000,110
5,1641059880000,20
4,1641059866000,122
1,1641059865000,97
2,1641059859000,90
2,1641059823000,3
2,1641059797000,80
3,1641059795000,128
2,1641059793000,33
6,1641059788000,73
1,1641059753000,34
5,1641059720000,146
1,1641059706000,150
5,1641059655000,60
1,1641059653000,6
5,1641059532000,132
1,1641059507000,58
1,1641059504000,29
3,1641059473000,111
1,1641059401000,98
1,1641059313000,105
6,1641059279000,36
6,1641059215000,41
4,1641059202000,94
6,1641059185000,55
3,1641059115000,16
3,1641059088000,26
3,1641059084000,117
5,1641059038000,36
4,1641058998000,114
5,1641058970000,36
3,1641058950000,114
4,1641058924000,159
5,1641058832000,108
5,1641058809000,126
1,1641058775000,62
5,1641058756000,65
2,1641058719000,184
2,1641058695000,151
2,1641058691000,176
3,1641058593000,116
2,1641058582000,73
5,1641058404000,177
4,1641058325000,125
4,1641058309000,46
5,1641058224000,56
2,1641058183000,52
1,1641058178000,126
2,1641058120000,25
6,1641058108000,122
6,1641058054000,9
6,1641057975000,118
6,1641057918000,39
4,1641057858000,67
2,1641057824000,113
5,1641057757000,43
6,1641057706000,116
3,1641057706000,184
4,1641057648000,22
1,1641057628000,93
2,1641057600000,16
6,1641057551000,16
3,1641057541000,135
6,1641057468000,155
1,1641057431000,198
6,1641057402000,111
5,1641057339000,115
6,1641057334000,140
1,1641057318000,140
6,1641057254000,128
4,1641057221000,124
5,1641057158000,111
6,1641057157000,113
2,1641057084000,1
1,1641057083000,191
3,1641057073000,114
4,1641056980000,87
3,1641056803000,39
3,1641056752000,72
1,1641056628000,169
3,1641056595000,189
2,1641056344000,105
6,1641056248000,129
4,1641056125000,117
1,1641056099000,97
4,1641056049000,92
5,1641055953000,109
5,1641055836000,78
3,1641055825000,142
4,1641055795000,155
1,1641055750000,26
2,1641055685000,65
5,1641055681000,133
5,1641055664000,116
6,1641055638000,125
1,1641055587000,169
6,1641055566000,197
5,1641055552000,46
4,1641055513000,82
3,1641055459000,130
1,1641055458000,177
5,1641055365000,155
6,1641055353000,179
4,1641055299000,149
1,1641055298000,60
5,1641055286000,56
6,1641055188000,15
1,1641055178000,37
1,1641055167000,197
4,1641054980000,64
1,1641054940000,114
1,1641054849000,54
2,1641054770000,195
4,1641054681000,115
3,1641054631000,106
3,1641054613000,194
2,1641054608000,42
2,1641054605000,77
3,1641054572000,200
6,1641054510000,175
3,1641054501000,127
2,1641054401000,179
5,1641054349000,20
3,1641054340000,97
2,1641054334000,4
1,1641054334000,51
2,1641054324000,159
4,1641054281000,42
1,1641054272000,1
4,1641054204000,13
1,1641054185000,26
6,1641054146000,58
3,1641054098000,131
4,1641054075000,193
4,1641054044000,151
3,1641054028000,32
3,1641054025000,197
2,1641053955000,56
3,1641053906000,17
2,1641053820000,199
1,1641053806000,183
3,1641053732000,177
6,1641053690000,110
1,1641053652000,111
4,1641053583000,90
3,1641053582000,13
5,1641053485000,35
3,1641053461000,158
6,1641053457000,85
2,1641053446000,92
4,1641053430000,30
3,1641053427000,62
4,1641053414000,37
3,1641053393000,48
6,1641053329000,151
5,1641053269000,115
6,1641053266000,47
1,1641053246000,190
3,1641053194000,10
6,1641053181000,104
1,1641053143000,31
3,1641053095000,70
2,1641052981000,79
3,1641052959000,84
1,1641052900000,179
6,1641052679000,171
3,1641052659000,152
2,1641052645000,163
2,1641052564000,112
6,1641052483000,2
6,1641052482000,8
5,1641052473000,126
6,1641052421000,109
2,1641052418000,138
6,1641052388000,188
2,1641052343000,92
6,1641052254000,56
1,1641052243000,106
3,1641052230000,174
1,1641052132000,7
5,1641052117000,128
2,1641052014000,61
3,1641051953000,8
4,1641051948000,49
3,1641051941000,72
1,1641051902000,91
6,1641051832000,109
6,1641051785000,199
1,1641051736000,42
2,1641051722000,191
6,1641051714000,132
2,1641051697000,149
2,1641051626000,1
1,1641051593000,136
6,1641051456000,105
5,1641051409000,186
2,1641051386000,85
2,1641051356000,26
5,1641051270000,33
4,1641051166000,157
6,1641051163000,90
6,1641051092000,92
3,1641051059000,136
6,1641051027000,144
2,1641050972000,167
3,1641050957000,51
1,1641050938000,102
6,1641050938000,80
3,1641050918000,161
3,1641050831000,13
2,1641050793000,138
1,1641050779000,45
5,1641050701000,142
1,1641050663000,17
1,1641050656000,21
1,1641050647000,194
2,1641050637000,161
2,1641050554000,41
5,1641050526000,175
6,1641050500000,124
1,1641050214000,118
4,1641050096000,119
4,1641050070000,95
1,1641050054000,160
6,1641049907000,135
6,1641049847000,110
5,1641049760000,184
6,1641049739000,125
2,1641049723000,152
3,1641049664000,193
1,1641049657000,139
3,1641049653000,131
4,1641049617000,199
2,1641049454000,115
1,1641049435000,197
2,1641049361000,21
3,1641049352000,82
3,1641049296000,33
1,1641049290000,108
4,1641049247000,53
2,1641049244000,95
6,1641049237000,170
2,1641049210000,44
5,1641049208000,107
1,1641049197000,93
2,1641049179000,92
4,1641049167000,184
2,1641049152000,14
1,1641049134000,50
3,1641049127000,131
1,1641049118000,42
4,1641049113000,133
5,1641049093000,3
6,1641049040000,144
3,1641049029000,38
3,1641048968000,13
6,1641048964000,121
4,1641048962000,96
2,1641048948000,162
6,1641048927000,10
2,1641048793000,138
2,1641048764000,175
4,1641048719000,9
1,1641048696000,187
6,1641048688000,77
3,1641048669000,72
6,1641048633000,33
3,1641048577000,24
3,1641048504000,100
6,1641048434000,149
4,1641048387000,22
5,1641048294000,26
3,1641048283000,76
6,1641048210000,180
5,1641048189000,89
1,1641048144000,24
1,1641048097000,121
5,1641048070000,38
5,1641048070000,134
2,1641048047000,36
2,1641047991000,109
5,1641047957000,35
1,1641047895000,112
5,1641047864000,163
4,1641047846000,36
1,1641047804000,92
1,1641047629000,53
4,1641047595000,19
5,1641047578000,45
3,1641047551000,186
1,1641047534000,48
5,1641047359000,196
1,1641047257000,80
5,1641047233000,103
6,1641047225000,88
1,1641047225000,44
3,1641047218000,37
4,1641047203000,137
4,1641047190000,190
4,1641047168000,197
4,1641047085000,146
5,1641047066000,36
1,1641047021000,153
6,1641046962000,197
3,1641046905000,140
1,1641046868000,115
1,1641046795000,176
4,1641046714000,125
1,1641046708000,3
2,1641046707000,145
6,1641046692000,44
3,1641046641000,114
1,1641046605000,101
4,1641046596000,75
2,1641046543000,27
4,1641046526000,192
6,1641046424000,180
3,1641046409000,75
1,1641046380000,94
1,1641046365000,152
3,1641046356000,1
6,1641046325000,131
1,1641046262000,137
6,1641046226000,144
3,1641046223000,152
1,1641046206000,108
6,1641046174000,146
4,1641046054000,68
1,1641046028000,102
1,1641045882000,33
4,1641045874000,55
4,1641045853000,82
1,1641045840000,69
6,1641045809000,137
3,1641045793000,113
6,1641045708000,200
3,1641045670000,30
3,1641045645000,155
5,1641045644000,157
2,1641045632000,142
6,1641045580000,91
4,1641045483000,4
3,1641045448000,198
6,1641045411000,172
1,1641045403000,158
1,1641045400000,51
3,1641045366000,165
6,1641045338000,156
6,1641045255000,78
1,1641045246000,4
4,1641045191000,91
2,1641045162000,37
2,1641045085000,121
5,1641045043000,33
5,1641045037000,121
1,1641045036000,156
1,1641044961000,167
3,1641044876000,68
2,1641044868000,199
5,1641044865000,126
4,1641044786000,168
3,1641044717000,64
2,1641044631000,10
4,1641044476000,61
1,1641044460000,53
4,1641044372000,11
5,1641044293000,0
2,1641044249000,129
6,1641044213000,150
3,1641044139000,101
4,1641044133000,178
1,1641044126000,75
5,1641044009000,127
2,1641043971000,89
3,1641043875000,35
3,1641043860000,79
1,1641043807000,122
4,1641043748000,89
3,1641043734000,169
3,1641043733000,109
3,1641043685000,77
4,1641043683000,176
3,1641043679000,144
3,1641043664000,170
5,1641043662000,135
5,1641043640000,110
1,1641043613000,145
6,1641043586000,118
3,1641043561000,110
4,1641043532000,169
4,1641043476000,126
2,1641043456000,141
4,1641043447000,54
3,1641043413000,159
3,1641043395000,61
4,1641043307000,15
5,1641043300000,192
5,1641043222000,94
1,1641043031000,126
2,1641043014000,56
1,1641042987000,119
3,1641042975000,137
2,1641042896000,155
5,1641042894000,177
3,1641042808000,104
1,1641042754000,134
5,1641042636000,148
6,1641042627000,161
3,1641042571000,194
4,1641042532000,160
6,1641042528000,163
1,1641042528000,17
3,1641042492000,81
4,1641042484000,44
6,1641042482000,54
6,1641042465000,30
2,1641042451000,34
3,1641042446000,37
3,1641042313000,180
4,1641042113000,77
6,1641042060000,105
4,1641042027000,130
2,1641041982000,91
1,1641041921000,30
1,1641041844000,184
5,1641041707000,173
6,1641041705000,29
3,1641041641000,146
1,1641041601000,32
6,1641041569000,169
1,1641041522000,153
3,1641041486000,92
6,1641041428000,69
1,1641041425000,152
2,1641041394000,92
4,1641041357000,28
4,1641041337000,44
5,1641041304000,71
2,1641041290000,144
3,1641041289000,8
1,1641041240000,176
3,1641041214000,174
6,1641041161000,95
5,1641041066000,136
1,1641040970000,184
6,1641040937000,179
6,1641040935000,193
5,1641040931000,9
1,1641040835000,196
4,1641040642000,113
6,1641040615000,109
4,1641040578000,177
4,1641040531000,23
6,1641040488000,97
1,1641040466000,26
2,1641040449000,128
5,1641040320000,168
6,1641040303000,110
3,1641040293000,186
2,1641040279000,2
3,1641040230000,52
3,1641040133000,146
4,1641040055000,133
6,1641039926000,149
5,1641039922000,174
1,1641039557000,194
4,1641039551000,13
1,1641039214000,81
5,1641039010000,186
5,1641038915000,37
6,1641038907000,0
3,1641038897000,176
3,1641038889000,109
2,1641038821000,57
5,1641038808000,164
5,1641038631000,76
4,1641038628000,169
4,1641038590000,151
6,1641038528000,182
3,1641038510000,178
4,1641038508000,172
5,1641038485000,55
2,1641038445000,82
5,1641038416000,2
6,1641038374000,152
1,1641038362000,110
3,1641038287000,181
5,1641038186000,81
6,1641038171000,140
5,1641038154000,97
1,1641038141000,155
6,1641038113000,168
3,1641038038000,106
4,1641038005000,128
3,1641037891000,47
1,1641037822000,103
6,1641037779000,19
5,1641037710000,61
1,1641037674000,87
5,1641037658000,67
4,1641037636000,125
5,1641037563000,48
3,1641037548000,20
2,1641037521000,91
6,1641037518000,82
3,1641037447000,55
4,1641037439000,198
1,1641037379000,141
5,1641037377000,6
3,1641037323000,159
5,1641037315000,55
1,1641037306000,105
1,1641037266000,126
1,1641037250000,131
3,1641037106000,5
6,1641037094000,167
5,1641037045000,82
5,1641036978000,55
6,1641036844000,186
1,1641036785000,141
4,1641036782000,13
1,1641036761000,126
4,1641036706000,107
3,1641036680000,65
1,1641036656000,102
4,1641036599000,175
3,1641036581000,56
4,1641036574000,2
5,1641036508000,84
6,1641036394000,15
3,1641036302000,169
3,1641036268000,34
3,1641036200000,160
2,1641036139000,160
2,1641036117000,80
5,1641036106000,31
2,1641036045000,42
2,1641035967000,50
1,1641035930000,83
2,1641035820000,152
4,1641035798000,125
3,1641035665000,125
6,1641035645000,37
6,1641035617000,171
6,1641035562000,103
1,1641035554000,87
1,1641035510000,157
4,1641035444000,73
5,1641035177000,15
6,1641035031000,148
3,1641035006000,194
4,1641034927000,98
1,1641034900000,194
3,1641034839000,107
5,1641034824000,132
2,1641034798000,52
6,1641034677000,34
1,1641034647000,116
2,1641034621000,80
1,1641034531000,115
1,1641034520000,167
3,1641034423000,198
5,1641034409000,80
6,1641034395000,45
1,1641034386000,113
2,1641034349000,59
6,1641034275000,10
6,1641034251000,5
5,1641034250000,191
4,1641034190000,14
3,1641034168000,183
4,1641034161000,82
5,1641034122000,42
3,1641034108000,54
5,1641034105000,138
4,1641034052000,26
4,1641033937000,59
3,1641033912000,122
5,1641033854000,129
4,1641033807000,187
4,1641033786000,169
3,1641033756000,77
1,1641033708000,184
3,1641033699000,97
1,1641033695000,38
2,1641033679000,25
1,1641033677000,12
5,1641033669000,177
1,1641033614000,148
1,1641033587000,39
3,1641033478000,48
2,1641033356000,70
5,1641033332000,87
3,1641033301000,141
6,1641033163000,159
1,1641033155000,181
4,1641033123000,89
6,1641033066000,107
1,1641033035000,31
6,1641033025000,7
6,1641032967000,51
2,1641032963000,152
4,1641032948000,196
6,1641032735000,196
2,1641032698000,92
2,1641032682000,119
1,1641032671000,56
4,1641032634000,35
2,1641032631000,135
4,1641032614000,171
2,1641032612000,26
4,1641032588000,187
6,1641032557000,62
1,1641032520000,154
2,1641032487000,3
4,1641032461000,52
5,1641032452000,51
1,1641032427000,16
1,1641032378000,64
5,1641032356000,99
4,1641032312000,24
3,1641032213000,181
5,1641032187000,24
5,1641032174000,157
3,1641032167000,195
5,1641032135000,168
5,1641032061000,144
6,1641032059000,103
4,1641032054000,171
4,1641031954000,23
1,1641031924000,42
5,1641031919000,59
1,1641031904000,33
5,1641031876000,144
6,1641031866000,167
6,1641031806000,76
3,1641031802000,173
3,1641031731000,85
3,1641031688000,109
3,1641031626000,53
4,1641031617000,62
5,1641031576000,72
5,1641031506000,129
1,1641031442000,158
4,1641031431000,65
6,1641031424000,140
3,1641031423000,61
5,1641031414000,44
3,1641031376000,141
5,1641031373000,20
5,1641031364000,120
3,1641031234000,73
6,1641031217000,98
1,1641031210000,171
5,1641031152000,8
6,1641031146000,146
1,1641031104000,20
1,1641031077000,65
5,1641031062000,120
1,1641030960000,121
3,1641030897000,26
2,1641030881000,88
6,1641030817000,18
4,1641030702000,189
4,1641030665000,122
3,1641030592000,85
1,1641030591000,27
6,1641030538000,164
4,1641030533000,28
3,1641030490000,38
3,1641030472000,76
2,1641030470000,38
4,1641030466000,198
6,1641030425000,50
4,1641030412000,116
1,1641030324000,53
4,1641030247000,185
4,1641030246000,8
4,1641030216000,94
1,1641030151000,86
6,1641030149000,55
4,1641030135000,168
3,1641030039000,63
5,1641030003000,193
1,1641029951000,138
1,1641029933000,13
2,1641029932000,62
6,1641029926000,116
2,1641029907000,76
5,1641029858000,62
1,1641029723000,96
1,1641029717000,199
6,1641029645000,141
5,1641029597000,155
5,1641029585000,69
5,1641029509000,85
5,1641029433000,63
1,1641029410000,139
6,1641029341000,116
4,1641029335000,129
1,1641029323000,113
4,1641029293000,196
4,1641029242000,154
2,1641029219000,172
2,1641029158000,11
5,1641029001000,171
4,1641028962000,138
5,1641028861000,70
4,1641028798000,194
3,1641028704000,46
5,1641028438000,91
3,1641028410000,86
2,1641028399000,175
3,1641028371000,187
5,1641028364000,96
1,1641028362000,106
6,1641028356000,187
1,1641028344000,130
3,1641028177000,40
6,1641028139000,29
5,1641028007000,56
3,1641027973000,58
6,1641027956000,190
6,1641027850000,110
6,1641027821000,158
6,1641027816000,108
6,1641027784000,142
2,1641027765000,194
3,1641027755000,4
4,1641027736000,92
3,1641027676000,137
3,1641027642000,199
3,1641027612000,141
5,1641027535000,103
2,1641027529000,167
6,1641027525000,9
5,1641027518000,68
3,1641027512000,200
1,1641027501000,100
5,1641027465000,169
2,1641027423000,147
5,1641027384000,26
4,1641027361000,153
4,1641027349000,71
1,1641027253000,128
4,1641027225000,105
5,1641027223000,173
1,1641027214000,68
5,1641027157000,156
5,1641027118000,107
4,1641027108000,61
5,1641027062000,172
3,1641027024000,73
5,1641026995000,138
2,1641026912000,128
2,1641026840000,86
6,1641026838000,177
6,1641026738000,188
5,1641026732000,20
5,1641026663000,46
5,1641026611000,120
3,1641026560000,100
3,1641026506000,108
1,1641026472000,140
5,1641026439000,109
1,1641026425000,60
4,1641026412000,38
4,1641026403000,143
1,1641026333000,155
2,1641026304000,35
1,1641026237000,72
3,1641026234000,66
2,1641026215000,103
3,1641026137000,197
5,1641026097000,93
6,1641026011000,22
6,1641026001000,66
4,1641025977000,70
5,1641025723000,134
4,1641025713000,185
6,1641025707000,67
4,1641025674000,146
3,1641025645000,30
2,1641025613000,157
5,1641025592000,5
3,1641025547000,161
3,1641025514000,161
4,1641025475000,56
6,1641025411000,100
6,1641025369000,81
1,1641025335000,140
6,1641025168000,104
4,1641025164000,151
3,1641025161000,182
5,1641025142000,171
4,1641025046000,70
6,1641024994000,117
6,1641024959000,151
6,1641024913000,103
1,1641024885000,3
2,1641024885000,169
5,1641024877000,117
6,1641024805000,12
2,1641024771000,172
4,1641024728000,112
1,1641024664000,63
4,1641024622000,20
6,1641024621000,18
5,1641024507000,48
6,1641024493000,16
2,1641024489000,188
1,1641024468000,10
2,1641024462000,195
5,1641024448000,104
1,1641024413000,79
3,1641024398000,14
2,1641024392000,148
3,1641024377000,81
4,1641024298000,112
4,1641024241000,10
4,1641024201000,128
2,1641024169000,141
4,1641024137000,36
3,1641024039000,181
3,1641024026000,130
4,1641023953000,67
4,1641023871000,61
4,1641023844000,18
2,1641023800000,158
5,1641023793000,125
6,1641023759000,37
6,1641023743000,57
2,1641023716000,166
5,1641023702000,116
3,1641023654000,106
6,1641023603000,3
2,1641023541000,200
4,1641023507000,107
1,1641023484000,154
4,1641023412000,180
1,1641023410000,165
1,1641023407000,192
5,1641023376000,199
2,1641023318000,182
6,1641023252000,29
1,1641023192000,200
6,1641023117000,98
6,1641023087000,17
3,1641023073000,12
2,1641023066000,167
5,1641022952000,72
4,1641022934000,42
5,1641022895000,176
6,1641022871000,62
5,1641022834000,82
6,1641022825000,137
3,1641022773000,8
5,1641022723000,38
1,1641022680000,17
2,1641022678000,160
2,1641022589000,89
5,1641022539000,84
5,1641022530000,25
4,1641022440000,147
4,1641022387000,194
4,1641022277000,129
3,1641022248000,50
4,1641022225000,58
1,1641022156000,82
1,1641022150000,41
6,1641022150000,130
2,1641022132000,132
3,1641022109000,200
2,1641022030000,155
2,1641022009000,169
2,1641021891000,52
1,1641021862000,56
3,1641021809000,173
2,1641021794000,18
4,1641021637000,57
1,1641021616000,54
5,1641021604000,43
1,1641021541000,123
2,1641021408000,6
3,1641021404000,126
5,1641021396000,131
6,1641021342000,151
4,1641021250000,189
1,1641021218000,22
6,1641021205000,134
6,1641021195000,149
6,1641021195000,193
3,1641021126000,105
6,1641021045000,6
2,1641020916000,54
3,1641020874000,122
2,1641020868000,32
4,1641020868000,55
3,1641020836000,63
6,1641020763000,59
6,1641020749000,159
3,1641020747000,48
1,1641020639000,102
1,1641020608000,54
6,1641020548000,5
3,1641020369000,96
3,1641020339000,60
6,1641020327000,200
6,1641020324000,138
3,1641020323000,43
6,1641020287000,63
4,1641020193000,105
4,1641020183000,30
3,1641020176000,115
4,1641020075000,154
1,1641019995000,105
3,1641019992000,8
2,1641019991000,67
4,1641019949000,44
2,1641019919000,80
5,1641019919000,124
4,1641019907000,16
3,1641019883000,141
3,1641019822000,70
5,1641019814000,12
4,1641019794000,113
5,1641019774000,34
1,1641019710000,2
5,1641019628000,128
6,1641019554000,153
5,1641019543000,196
1,1641019516000,62
1,1641019453000,114
3,1641019368000,60
6,1641019299000,195
4,1641019290000,2
2,1641019262000,18
3,1641019220000,90
1,1641019173000,32
3,1641019139000,128
5,1641019098000,98
2,1641019062000,114
1,1641019041000,198
5,1641018984000,170
2,1641018901000,182
4,1641018882000,50
2,1641018875000,177
3,1641018867000,68
2,1641018864000,184
2,1641018820000,158
4,1641018819000,79
1,1641018810000,36
4,1641018774000,99
3,1641018741000,104
6,1641018692000,102
4,1641018670000,48
1,1641018663000,28
3,1641018606000,28
3,1641018598000,134
1,1641018585000,64
1,1641018585000,81
3,1641018573000,12
5,1641018497000,71
3,1641018482000,73
2,1641018472000,176
3,1641018378000,69
4,1641018308000,81
6,1641018304000,24
6,1641018303000,116
6,1641018294000,68
5,1641018289000,82
1,1641018150000,144
3,1641018125000,176
3,1641018075000,20
1,1641018068000,146
4,1641018042000,162
4,1641017982000,31
5,1641017933000,52
6,1641017878000,120
5,1641017851000,193
2,1641017820000,163
5,1641017807000,4
6,1641017736000,47
1,1641017713000,108
2,1641017654000,64
6,1641017648000,107
5,1641017602000,39
3,1641017566000,166
3,1641017553000,146
2,1641017537000,126
6,1641017530000,149
2,1641017307000,158
3,1641017246000,66
4,1641017241000,179
3,1641017207000,120
4,1641017199000,98
3,1641017117000,86
6,1641017088000,47
3,1641017082000,53
5,1641017050000,163
3,1641016997000,67
2,1641016972000,165
6,1641016966000,6
4,1641016937000,139
3,1641016910000,10
5,1641016863000,49
6,1641016787000,167
3,1641016733000,46
1,1641016719000,158
1,1641016694000,6
4,1641016597000,151
6,1641016560000,75
6,1641016477000,26
6,1641016440000,18
5,1641016420000,29
6,1641016412000,109
2,1641016394000,52
4,1641016279000,142
4,1641016277000,33
4,1641016247000,115
3,1641016199000,84
2,1641016190000,3
4,1641016179000,6
2,1641016177000,138
6,1641016156000,134
5,1641016141000,80
4,1641016136000,101
2,1641016067000,198
5,1641016033000,142
4,1641016030000,174
4,1641015992000,165
4,1641015893000,130
6,1641015892000,125
2,1641015876000,76
1,1641015761000,126
3,1641015731000,190
2,1641015705000,77
3,1641015679000,100
5,1641015670000,154
6,1641015651000,122
1,1641015556000,165
3,1641015505000,123
1,1641015484000,10
4,1641015469000,110
3,1641015427000,83
5,1641015412000,120
6,1641015409000,131
6,1641015351000,156
2,1641015344000,37
4,1641015261000,36
2,1641015181000,163
4,1641015140000,9
1,1641015105000,153
3,1641015034000,180
6,1641014989000,24
3,1641014936000,173
1,1641014934000,34
1,1641014904000,174
6,1641014854000,66
5,1641014795000,122
4,1641014749000,154
1,1641014689000,35
5,1641014620000,196
5,1641014516000,173
5,1641014498000,88
2,1641014485000,99
5,1641014484000,57
1,1641014461000,89
6,1641014442000,198
6,1641014407000,168
5,1641014365000,26
2,1641014361000,110
2,1641014210000,124
2,1641014172000,16
1,1641014130000,129
3,1641014090000,84
1,1641014021000,25
2,1641013975000,15
2,1641013792000,47
3,1641013758000,81
5,1641013704000,177
4,1641013662000,67
5,1641013593000,184
1,1641013566000,22
6,1641013538000,76
1,1641013521000,7
2,1641013509000,88
5,1641013506000,105
3,1641013322000,195
1,1641013318000,123
1,1641013287000,163
3,1641013263000,10
1,1641013214000,192
3,1641013199000,195
2,1641013192000,30
4,1641013079000,144
2,1641013070000,103
1,1641013050000,97
4,1641013044000,74
1,1641013009000,77
6,1641012974000,35
2,1641012938000,169
3,1641012921000,117
3,1641012877000,146
4,1641012842000,62
2,1641012826000,133
1,1641012822000,51
1,1641012821000,73
5,1641012799000,151
3,1641012781000,51
2,1641012677000,57
2,1641012608000,16
6,1641012539000,106
5,1641012489000,139
5,1641012312000,47
3,1641012058000,183
2,1641012030000,39
2,1641011877000,111
1,1641011768000,80
4,1641011651000,92
4,1641011641000,62
4,1641011611000,24
2,1641011494000,81
4,1641011456000,64
6,1641011426000,89
4,1641011318000,157
6,1641011301000,29
1,1641011292000,112
4,1641011161000,36
6,1641011079000,4
5,1641011057000,55
4,1641011009000,138
6,1641010986000,196
3,1641010983000,31
3,1641010931000,163
6,1641010921000,109
6,1641010915000,47
2,1641010880000,160
4,1641010807000,16
6,1641010766000,96
5,1641010752000,122
3,1641010724000,173
6,1641010721000,8
5,1641010700000,98
2,1641010679000,129
5,1641010661000,133
3,1641010637000,48
6,1641010545000,25
6,1641010339000,115
3,1641010318000,70
5,1641010272000,27
5,1641010246000,126
4,1641010245000,32
5,1641010147000,88
1,1641010029000,110
1,1641009993000,1
6,1641009984000,165
1,1641009881000,158
4,1641009870000,23
4,1641009815000,98
5,1641009804000,53
5,1641009682000,7
3,1641009678000,133
6,1641009639000,175
5,1641009621000,143
1,1641009475000,123
4,1641009472000,99
2,1641009440000,104
6,1641009440000,26
5,1641009371000,21
2,1641009341000,126
5,1641009320000,18
3,1641009317000,200
4,1641009295000,39
1,1641009221000,38
5,1641009145000,96
5,1641009116000,131
5,1641009046000,150
3,1641009000000,16
1,1641008974000,68
3,1641008944000,110
4,1641008798000,10
3,1641008694000,105
1,1641008664000,59
1,1641008545000,51
5,1641008539000,132
3,1641008469000,189
5,1641008438000,48
4,1641008387000,79
5,1641008354000,194
6,1641008345000,22
4,1641008321000,8
3,1641008293000,74
3,1641008290000,161
1,1641008280000,24
3,1641008270000,5
4,1641008255000,135
4,1641008204000,47
2,1641008183000,158
1,1641008148000,5
6,1641008102000,195
6,1641007975000,176
6,1641007967000,124
3,1641007897000,167
5,1641007816000,85
4,1641007797000,110
5,1641007757000,161
2,1641007744000,168
1,1641007742000,137
4,1641007591000,67
1,1641007531000,183
5,1641007515000,63
1,1641007505000,103
2,1641007477000,136
4,1641007452000,10
1,1641007438000,140
5,1641007420000,64
6,1641007392000,176
5,1641007391000,102
4,1641007258000,92
2,1641007242000,169
4,1641007232000,163
3,1641007194000,8
2,1641007189000,95
4,1641007149000,89
1,1641006989000,32
3,1641006957000,122
5,1641006947000,64
5,1641006914000,15
1,1641006851000,109
1,1641006822000,39
1,1641006813000,67
1,1641006764000,52
6,1641006704000,35
3,1641006671000,92
3,1641006667000,122
5,1641006629000,134
2,1641006622000,4
2,1641006619000,97
6,1641006610000,197
3,1641006466000,10
2,1641006375000,167
3,1641006325000,82
2,1641006303000,51
3,1641006228000,156
4,1641006218000,26
3,1641006213000,3
5,1641006103000,110
2,1641006041000,100
3,1641005966000,35
4,1641005829000,198
1,1641005753000,107
4,1641005745000,190
3,1641005722000,92
5,1641005704000,196
4,1641005700000,167
5,1641005700000,125
4,1641005652000,34
5,1641005613000,77
4,1641005583000,170
6,1641005459000,100
3,1641005266000,31
6,1641005257000,189
6,1641005211000,130
1,1641005190000,172
1,1641005149000,133
2,1641005135000,185
5,1641005123000,112
4,1641005110000,50
5,1641005103000,83
2,1641004983000,93
2,1641004952000,62
6,1641004847000,66
4,1641004731000,28
1,1641004707000,78
6,1641004648000,30
1,1641004608000,89
5,1641004607000,181
5,1641004567000,188
1,1641004551000,121
5,1641004529000,168
3,1641004514000,176
6,1641004483000,89
4,1641004443000,105
6,1641004394000,32
2,1641004381000,74
2,1641004334000,133
3,1641004333000,189
1,1641004286000,134
4,1641004265000,5
5,1641004262000,193
6,1641004215000,33
4,1641004169000,99
4,1641004023000,173
2,1641004001000,103
4,1641003951000,33
2,1641003943000,182
6,1641003904000,18
5,1641003898000,140
6,1641003892000,71
2,1641003845000,191
4,1641003839000,167
6,1641003818000,3
2,1641003786000,136
1,1641003782000,143
5,1641003779000,179
6,1641003687000,85
3,1641003666000,108
2,1641003520000,77
4,1641003409000,197
6,1641003374000,96
3,1641003372000,17
4,1641003309000,15
5,1641003271000,26
6,1641003204000,44
1,1641003198000,11
4,1641003183000,129
6,1641003166000,172
1,1641003142000,26
4,1641003002000,19
3,1641002952000,149
4,1641002764000,144
5,1641002750000,44
4,1641002723000,16
6,1641002692000,51
4,1641002668000,195
1,1641002576000,127
6,1641002567000,174
3,1641002560000,69
2,1641002499000,184
4,1641002403000,153
6,1641002380000,101
3,1641002129000,150
4,1641002096000,137
5,1641002071000,97
2,1641001938000,145
3,1641001917000,180
4,1641001915000,188
4,1641001914000,185
4,1641001878000,43
2,1641001866000,111
5,1641001855000,111
2,1641001709000,59
2,1641001706000,42
5,1641001696000,63
5,1641001690000,12
3,1641001680000,15
5,1641001664000,161
1,1641001602000,92
4,1641001581000,157
3,1641001514000,100
2,1641001500000,200
5,1641001491000,153
6,1641001445000,51
6,1641001311000,38
6,1641001289000,47
6,1641001272000,75
5,1641001188000,62
6,1641001173000,191
4,1641001143000,59
5,1641001132000,112
4,1641001119000,68
2,1641001102000,31
1,1641001087000,135
1,1641001076000,108
5,1641001065000,57
1,1641001030000,52
4,1641000931000,66
6,1641000898000,30
4,1641000805000,176
1,1641000699000,184
3,1641000675000,175
6,1641000673000,110
1,1641000672000,191
4,1641000629000,98
4,1641000602000,36
4,1641000519000,126
1,1641000430000,3
2,1641000401000,160
2,1641000257000,169
3,1641000239000,132
1,1641000165000,119
6,1641000153000,198
3,1641000132000,96
2,1641000088000,39
4,1641000081000,168
4,1641000078000,107
3,1641000021000,5
1,1641000015000,11
1,1641000009000,2
1,1640999877000,26
2,1640999877000,125
3,1640999876000,88
4,1640999715000,37
2,1640999715000,104
5,1640999696000,98
3,1640999657000,141
1,1640999615000,81
5,1640999595000,132
1,1640999483000,157
5,1640999477000,170
1,1640999343000,18
6,1640999308000,38
5,1640999305000,105
2,1640999223000,193
4,1640999165000,166
1,1640999164000,112
3,1640999109000,26
3,1640999090000,74
5,1640999086000,21
5,1640999028000,84
5,1640998983000,135
4,1640998963000,74
6,1640998945000,30
5,1640998885000,150
1,1640998843000,160
2,1640998802000,154
4,1640998749000,46
5,1640998745000,150
2,1640998733000,20
1,1640998642000,99
4,1640998633000,172
6,1640998593000,158
6,1640998574000,145
4,1640998552000,56
6,1640998537000,28
3,1640998460000,155
3,1640998450000,176
1,1640998442000,122
5,1640998391000,184
4,1640998385000,193
2,1640998355000,73
4,1640998296000,83
3,1640998167000,49
5,1640998128000,110
6,1640998121000,20
4,1640998107000,158
4,1640998083000,76
3,1640998010000,98
6,1640997908000,47
5,1640997805000,97
1,1640997718000,37
1,1640997716000,154
6,1640997706000,89
2,1640997605000,63
1,1640997484000,91
4,1640997397000,4
2,1640997332000,65
4,1640997270000,69
3,1640997264000,11
2,1640997244000,177
3,1640997207000,25
1,1640997193000,154
6,1640997136000,18
6,1640997122000,143
4,1640997060000,45
4,1640997008000,194
3,1640996976000,171
3,1640996974000,35
2,1640996961000,133
4,1640996799000,170
4,1640996509000,183
2,1640996462000,15
2,1640996461000,115
3,1640996442000,126
2,1640996415000,113
4,1640996385000,127
5,1640996377000,137
4,1640996365000,85
5,1640996364000,188
6,1640996363000,51
2,1640996349000,81
4,1640996322000,76
5,1640996290000,95
5,1640996274000,10
2,1640996272000,73
6,1640996199000,51
2,1640996198000,100
2,1640996172000,185
5,1640996054000,113
3,1640996033000,41
2,1640996028000,110
6,1640996021000,175
3,1640995989000,54
6,1640995953000,57
3,1640995948000,120
6,1640995881000,154
5,1640995744000,138
1,1640995715000,13
6,1640995706000,135
6,1640995645000,153
2,1640995617000,167
3,1640995588000,148
3,1640995549000,200
5,1640995529000,21
4,1640995463000,87
2,1640995419000,31
2,1640995344000,98
1,1640995329000,72
4,1640995245000,69
5,1640995190000,31
1,1640995152000,100
1,1640995114000,75
5,1640995102000,7
3,1640995085000,56
3,1640995011000,168
1,1640994972000,107
3,1640994759000,134
2,1640994710000,198
6,1640994689000,161
6,1640994679000,179
1,1640994622000,134
2,1640994590000,120
1,1640994469000,177
1,1640994379000,118
2,1640994359000,56
1,1640994286000,180
5,1640994266000,32
5,1640994243000,71
4,1640994192000,45
5,1640994146000,187
4,1640994110000,41
1,1640994105000,157
6,1640994060000,174
5,1640993946000,155
2,1640993910000,42
3,1640993883000,74
1,1640993856000,15
4,1640993602000,35
4,1640993562000,100
5,1640993524000,7
5,1640993524000,146
5,1640993517000,27
3,1640993498000,100
3,1640993440000,85
3,1640993357000,186
1,1640993285000,5
2,1640993244000,129
3,1640993159000,98
5,1640993144000,20
4,1640993036000,135
1,1640993035000,139
6,1640992984000,189
5,1640992889000,65
6,1640992853000,77
6,1640992818000,40
2,1640992732000,8
3,1640992636000,113
6,1640992624000,187
1,1640992593000,121
1,1640992504000,46
1,1640992441000,77
6,1640992404000,138
2,1640992388000,76
2,1640992261000,160
6,1640992221000,194
5,1640992190000,59
4,1640992155000,148
3,1640992132000,95
1,1640992124000,187
1,1640992057000,2
3,1640992052000,92
4,1640992039000,85
6,1640992015000,149
5,1640991961000,183
3,1640991947000,92
1,1640991886000,76
5,1640991881000,188
6,1640991878000,102
5,1640991865000,40
5,1640991859000,75
6,1640991856000,96
2,1640991811000,17
3,1640991713000,84
4,1640991544000,8
1,1640991508000,20
3,1640991420000,88
2,1640991416000,50
1,1640991413000,139
6,1640991294000,72
2,1640991290000,32
5,1640991262000,65
3,1640991233000,127
2,1640991171000,51
1,1640991065000,166
5,1640991062000,49
5,1640990975000,118
6,1640990924000,139
4,1640990898000,199
5,1640990839000,98
6,1640990805000,22
1,1640990747000,51
6,1640990714000,62
5,1640990688000,29
2,1640990685000,0
5,1640990652000,170
4,1640990627000,5
3,1640990603000,47
2,1640990558000,169
3,1640990532000,142
1,1640990509000,105
4,1640990485000,24
2,1640990458000,159
5,1640990427000,193
3,1640990420000,26
5,1640990396000,8
3,1640990383000,59
5,1640990333000,128
2,1640990290000,194
5,1640990289000,155
4,1640990183000,187
5,1640990160000,140
5,1640990055000,4
6,1640990002000,120
3,1640989976000,117
5,1640989913000,139
1,1640989906000,80
3,1640989900000,71
4,1640989896000,86
3,1640989805000,93
5,1640989803000,52
2,1640989642000,84
4,1640989603000,64
2,1640989592000,171
1,1640989495000,43
4,1640989490000,1
6,1640989363000,187
6,1640989317000,4
5,1640989304000,86
3,1640989248000,108
4,1640989210000,41
4,1640989201000,139
2,1640989153000,172
3,1640989088000,19
3,1640989069000,44
1,1640989038000,78
4,1640989015000,101
5,1640988982000,77
1,1640988975000,80
3,1640988872000,24
5,1640988861000,127
1,1640988848000,188
1,1640988766000,194
4,1640988758000,20
3,1640988754000,157
1,1640988729000,22
6,1640988721000,59
1,1640988714000,171
1,1640988643000,87
5,1640988500000,181
6,1640988428000,126
2,1640988313000,168
4,1640988190000,60
6,1640988179000,184
2,1640988152000,28
4,1640988145000,105
1,1640988137000,180
2,1640988136000,147
3,1640988105000,115
6,1640988096000,140
4,1640988000000,105
3,1640987989000,178
5,1640987928000,36
5,1640987921000,11
4,1640987906000,140
5,1640987881000,11
1,1640987875000,125
2,1640987795000,161
1,1640987756000,130
3,1640987750000,68
1,1640987734000,119
6,1640987717000,187
3,1640987628000,118
3,1640987622000,28
4,1640987565000,35
4,1640987476000,141
6,1640987294000,86
1,1640987243000,131
3,1640987224000,50
3,1640987128000,110
5,1640987124000,136
1,1640987065000,15
2,1640987050000,77
4,1640987045000,99
4,1640987019000,22
1,1640987001000,1
1,1640986939000,192
3,1640986825000,160
2,1640986781000,144
4,1640986717000,171
1,1640986671000,200
5,1640986667000,169
5,1640986627000,185
1,1640986604000,65
4,1640986462000,183
5,1640986421000,93
2,1640986399000,188
2,1640986391000,23
1,1640986376000,64
6,1640986274000,19
2,1640986198000,14
3,1640986070000,183
1,1640986005000,53
2,1640985957000,154
5,1640985867000,197
6,1640985861000,33
4,1640985791000,54
6,1640985782000,188
6,1640985761000,41
5,1640985718000,183
6,1640985704000,142
2,1640985679000,113
6,1640985667000,175
4,1640985633000,29
2,1640985598000,91
3,1640985564000,98
3,1640985563000,8
2,1640985535000,167
6,1640985472000,38
6,1640985439000,44
5,1640985422000,68
5,1640985421000,75
3,1640985332000,194
4,1640985326000,103
3,1640985313000,12
6,1640985296000,164
4,1640985261000,55
3,1640985246000,169
5,1640985243000,155
3,1640985221000,58
2,1640985156000,75
4,1640985134000,158
4,1640985081000,121
3,1640985062000,6
6,1640985049000,187
2,1640985013000,149
6,1640985009000,199
6,1640984889000,85
5,1640984878000,181
2,1640984860000,72
4,1640984824000,8
2,1640984818000,79
1,1640984813000,86
1,1640984736000,21
6,1640984731000,144
2,1640984729000,118
6,1640984694000,153
6,1640984666000,97
3,1640984574000,145
4,1640984567000,144
1,1640984565000,198
2,1640984441000,200
